variable_name,description,value
max_total_emissions,maximal CO2 emission in total [t],3500000
co2_price,price payed for each ton of CO2 emitted [CHF/t],100
e_price,(unrealistic high) electricity price [CHF/kWh],0.55
e_emissions,emission per kWh of electric energy [gram CO2/kWh],30
g_price,gas price [CHF/kWh],0.1
g_emissions,emissions per kWh of gas usage [gram CO2 / kWh],228
area_pv,Power per area and kW of solar irradiation for PV panels [kW_el/(kW_solar*m^2)],0.2
cap_inst_b,installed capacity of gas/oil boilers [kW],1690000000
cap_inst_bat,installed capacity of batteries [kWh],0
cap_inst_gt,installed capacity of gas turbines [kW],229500
cap_inst_hp,installed capacity of heat pumps 6558793 [kW],1400839041
cap_inst_hydro, installed capacity of hydro [kW],13030000
cap_inst_nuc,installed capacity of nuclear power [kW],3014600
cap_inst_ph, installed capacity of pumped hydro [kW],4605000
cap_inst_ptog,installed capacity for power to methane [kW],0
cap_inst_ptogstorage, installed storage capacity for gas [kWh],0
cap_inst_pv,installed capacity of PV [kW],3135800
enable_batteries,switch for batteries [boolean],TRUE
enable_boiler,switch for boiler [boolean],TRUE
enable_gasturbine,switch for gas turbine [boolean],TRUE
enable_heatpump,switch for heatpump [boolean],TRUE
enable_hydropower,switch for hydropower [boolean],TRUE
enable_nuclear,switch for nuclear power [boolean],TRUE
enable_p2g,switch for p2g [boolean],TRUE
enable_pumpedhydro,switch for pumped hydro power [boolean],TRUE
enable_runofriver,switch for run of river power plants [boolean],TRUE
enable_solar,switch for solar [boolean],TRUE
cop_hp,coefficient of performance of heatpump [ ],4
eta_b,efficiency of a boiler [],0.9
eta_gt,efficiency of gas turbines [],0.6
eta_hydro,efficiency of hydro,0.9
eta_p2g,efficiency of power to methane [],0.53
eta_ph,efficiency of pumped hydro,0.9
eta_ror,efficiency of gas turbines [],0.9
gradient_h_nuc,maximal output difference to last hour - fraction of cap_inst_nuc [1],0.05
hydro_price,operating cost for run of pumped hydro power plants [CHF/kWh],0.05
ror_price,operating cost for run of river power plants [CHF/kWh],0.04
inv_pv,investment costs for PV divided by lifetime [300 CHF/kW /0.2 kW/m^2 / 25 years],60
lic_bat,levelized investment costs for batteries [350 CHF / kWh / 15 years ],25
lic_boiler,levelized cost of energy of boilers [100 CHF/kW /15 years],6.67
lic_gt,levelized investment costs for gas turbines  [900 CHF/ kW /20 years],45
lic_hp,levelized investment costs for heatpumps [800 CHF / kW / 20 years],40
lic_p2g,levelized investment cost for power to methane power plants [2500 CHF / kW / 15 years ],167
lic_ptogstorage,levelized investment cost for power to methane gas storage [0.01 CHF / kWh / 20 years],2
max_resevoir_hydro, max resevoir hydro [kWh],7530000000
max_resevoir_ph, max resevoir pumped hydro [kwh],629000000
min_power_nuc, minimal power output - fraction of cap_inst_nuc [ ],0.5
min_power_ror, minimal power output - fraction of max output [ ],1
nuc_price,operating cost for nuclear power plants [CHF/kWh],0.03
prod_em_b,emissions during production of boiler [12000 g CO2 / kW / 15 years],800
prod_em_bat,emissions during production of batteries [89000 g CO2 / kWh / 15 years],6000
prod_em_gt,emissions during production of gas turbines [71000 g CO2 / kW / 20 years],3550
prod_em_hp,emissions during production of heat pumps [28000 g CO2 / kW / 20 years],1400
prod_em_p2g,emissions during construction of power to gas plant [g CO2 / kW / 15 years],3500
prod_em_pv,emissions during production of solar panels [50000 g CO2/kW /25 years],2000