technology,existing capacity [kW],additionally installed capacity [kW],investment cost [CHF per year],emissions by investment [t]
b,1690000000.0,0.0,0.0,0.0
bat,0.0,24115605.0,602890125.0,144693.63
gt,229500.0,1954527.3,87953728.5,6938.571915
hp,1400839041.0,0.0,0.0,0.0
hydro,13030000.0,0.0,0.0,0.0
nuc,3014600.0,0.0,0.0,0.0
ph,4605000.0,0.0,0.0,0.0
ptog,0.0,1094877.2,182844492.4,3832.0702
ptogstorage,0.0,18067426.0,36134852.0,0.0
pv,3135800.0,710162.04,42609722.400000006,1420.32408
